
{
	"info": {
		"count": 42,
		"page": 1,
		"pages": 7
	},
	"items": {
		"Discussion": {
			"id": 431211413,
			"total_count": 251,
			"status": 1,
			"json": null
		},
		"Comments": [{
			"id": 334418,
			"user_id": 897193314,
			"comment": "Beim Thema Neoliberalismus, sollte man in die USA des 19ten Jahrhunderts schauen.<br \/>\r\nZu derzeit haben die Amerikanischen Liberalen (Liberal in den USA die Linken), die Grenzen zwischen den Staaten Abgebaut und den Bundesstaat gest\u00e4rkt. (Federal Governement, Feds)<br \/>\r\n<br \/>\r\nSchon damals bem\u00e4ngelten die Liberals die Tycoons und Superreichen welche sich das Land unter den Nagel rissen, mit den neuen Freiheiten. Sie haben verloren.<br \/>\r\n<br \/>\r\nEs passiert das Selbe in Europa:<br \/>\r\nDie Eur. UNION ist nichts anderes als die UNITED S.O.A. <br \/>\r\nDie SP\/Gr\u00fcne\/CVP\/FDP betreiben mit der EU Politik US-Liberal-Politik aus dem 19.Jhd.<br \/>\r\n ",
			"date": "2016-04-25 20:10:21",
			"hate": 1,
			"love": 0,
			"media": null,
			"highlight": 0,
			"children": [],
			"User": {
				"username": "per scientam",
				"avatar": "\/imgdb\/f276\/Z100,100\/3057310441015086",
				"badge": "",
				"created": "2015-11-13 15:45:14",
				"biography": [],
				"gender": null,
				"working_address": null,
				"living_city": null,
				"birthdate": null
			},
			"media_animated": "",
			"media_ratio": 0,
			"youtube": null
		}, {
			"id": 329214,
			"user_id": 436380462,
			"comment": "Hier noch sein Track Record. Leider sind die Medien nicht mit ihm. Nichtmal hier in der Schweiz haben sie den Sprung gewagt. Was fuer ein Witz die Medien von Heute doch geworden sind. ",
			"date": "2016-04-21 01:14:19",
			"hate": 2,
			"love": 4,
			"media": null,
			"highlight": 0,
			"children": [],
			"User": {
				"username": "blueberry muffin",
				"avatar": "\/imgdb\/18aa\/Z100,100\/823128128197276",
				"badge": "",
				"created": "2014-08-21 05:05:19",
				"biography": [],
				"gender": null,
				"working_address": null,
				"living_city": null,
				"birthdate": null
			},
			"media_animated": "",
			"media_ratio": 0,
			"youtube": "kfqNRReOXmA"
		}, {
			"id": 329213,
			"user_id": 436380462,
			"comment": "Sanders erhielt mehr Stimmen als Donald Trump und ist die Traditionelle Linke Antwort zum Problem.<br \/>\r\n<br \/>\r\nAber mimimi. ",
			"date": "2016-04-21 00:49:02",
			"hate": 2,
			"love": 6,
			"media": null,
			"highlight": 0,
			"children": [],
			"User": {
				"username": "blueberry muffin",
				"avatar": "\/imgdb\/18aa\/Z100,100\/823128128197276",
				"badge": "",
				"created": "2014-08-21 05:05:19",
				"biography": [],
				"gender": null,
				"working_address": null,
				"living_city": null,
				"birthdate": null
			},
			"media_animated": "",
			"media_ratio": 0,
			"youtube": "Up3_aGCJ02Q"
		}, {
			"id": 328938,
			"user_id": 524740825,
			"comment": "Vielleicht w\u00fcrde es gut tun, wenn wieder einmal so sch\u00f6n gestreikt w\u00fcrde.<br \/>\r\nBei so einer Aktion w\u00fcrde sich bald herausstellen wer die Aufm\u00fcpfigen mit Waffengewalt zur R\u00e4son bringen w\u00fcrde.<br \/>\r\n<br \/>\r\nDies einfach zur Erinnerung an eine ferne, fremde Schweiz.<br \/>\r\nGleichzeitig aber ein Staunen! <br \/>\r\n<br \/>\r\nArbeitsfrieden in der Schweiz<br \/>\r\n<br \/>\r\n<a href=\"http:\/\/www.e-periodica.ch\/cntmng?var=true&pid=ror-004:2007:85::259\" target=\"_blank\">http:\/\/www.e-periodica.ch\/cntmng?var=true&pid=ror-004:2007:85::259<\/a><br \/>\r\n",
			"date": "2016-04-20 18:05:07",
			"hate": 3,
			"love": 9,
			"media": null,
			"highlight": 0,
			"children": [],
			"User": {
				"username": "mamina",
				"avatar": "\/imgdb\/f276\/Z100,100\/3057310441015086",
				"badge": "",
				"created": "2014-10-11 10:04:06",
				"biography": [],
				"gender": null,
				"working_address": null,
				"living_city": null,
				"birthdate": null
			},
			"media_animated": "",
			"media_ratio": 0,
			"youtube": null
		}, {
			"id": 328165,
			"user_id": 659758653,
			"comment": "Ich bin schon noch froh, dass ich in einem  kleinen Famillienbetrieb arbeite und generell die Arbeitsszene (Steinbildhauer) eher klein und familli\u00e4r ist. Doch auch ich habe im 1.ten Lehrjahr Mobbingerfahrungen gemacht .....<br \/>\r\nDanke f\u00fcr den Artikel in ihm steckt wirklich viel Wahrheit, leider.",
			"date": "2016-04-20 07:33:57",
			"hate": 0,
			"love": 12,
			"media": null,
			"highlight": 0,
			"children": [],
			"User": {
				"username": "wolkenesser",
				"avatar": "\/imgdb\/3943\/Z100,100\/3741118604289633",
				"badge": "",
				"created": "2015-03-02 22:47:23",
				"biography": [],
				"gender": null,
				"working_address": null,
				"living_city": null,
				"birthdate": null
			},
			"media_animated": "",
			"media_ratio": 0,
			"youtube": null
		}, {
			"id": 328157,
			"user_id": 264822898,
			"comment": "Der gr\u00f6sste Fehler in der Geschichte war die Annahme, dass als der Kommunismus 1989 spektakul\u00e4r gescheitert war, die irrige Annahme, dass das Gegenteil automatisch richtig sein muss.<br \/>\r\nAlternativlos. ",
			"date": "2016-04-20 07:19:07",
			"hate": 5,
			"love": 45,
			"media": null,
			"highlight": 0,
			"children": [{
				"id": 329034,
				"user_id": 872818914,
				"comment": "Dickes JA, Du hast recht!",
				"date": "2016-04-20 19:33:34",
				"hate": 4,
				"love": 8,
				"media": null,
				"highlight": 0,
				"User": {
					"username": "FrancoL",
					"avatar": "\/imgdb\/8759\/Z100,100\/815138918869327",
					"badge": "",
					"created": "2015-11-12 16:40:22",
					"biography": [],
					"gender": null,
					"working_address": null,
					"living_city": null,
					"birthdate": null
				},
				"media_animated": "",
				"media_ratio": 0,
				"youtube": null
			}, {
				"id": 334402,
				"user_id": 897193314,
				"comment": "Soziale Marktwirtschaft.<br \/>\r\n<br \/>\r\nDar\u00fcber sollte man diskutieren. Wieder einmal...",
				"date": "2016-04-25 19:57:29",
				"hate": 0,
				"love": 3,
				"media": null,
				"highlight": 0,
				"User": {
					"username": "per scientam",
					"avatar": "\/imgdb\/f276\/Z100,100\/3057310441015086",
					"badge": "",
					"created": "2015-11-13 15:45:14",
					"biography": [],
					"gender": null,
					"working_address": null,
					"living_city": null,
					"birthdate": null
				},
				"media_animated": "",
				"media_ratio": 0,
				"youtube": null
			}, {
				"id": 334409,
				"user_id": 897193314,
				"comment": "P.S.<br \/>\r\n<br \/>\r\nDie Freie Marktwirtschaft hat zwei Feinde:<br \/>\r\nDen Staat und die Banken\/Kredithaie\/Superkapitalisten.<br \/>\r\n<br \/>\r\nDer Staat Reguliert alles zu Tode und deckt mit seinen Gesetzen die Kreditgeber die \u00fcberrissene Zinsen fordern.<br \/>\r\n<br \/>\r\nF\u00f6derale Staaten mit Freier Marktwirtschaft generieren normalerweise Wohlstand: <br \/>\r\nF\u00f6deral: Regionale Gesetze k\u00f6nnen gemacht werden und Entscheide k\u00f6nnen Regional gef\u00e4llt werden. z.B. \"Diese Quelle geh\u00f6rt der Gemeinde X, Coca Cola darf hier kein Wasser abzapfen. Punkt.\"<br \/>\r\nFreie Marktwirtschaft: Jeder weiss selbst am besten was er braucht. Oder hat selbst eine Gute Idee.<br \/>\r\n",
				"date": "2016-04-25 20:03:20",
				"hate": 1,
				"love": 1,
				"media": null,
				"highlight": 0,
				"User": {
					"username": "per scientam",
					"avatar": "\/imgdb\/f276\/Z100,100\/3057310441015086",
					"badge": "",
					"created": "2015-11-13 15:45:14",
					"biography": [],
					"gender": null,
					"working_address": null,
					"living_city": null,
					"birthdate": null
				},
				"media_animated": "",
				"media_ratio": 0,
				"youtube": null
			}, {
				"id": 334419,
				"user_id": 872818914,
				"comment": "@per scientam;<br \/>\r\n<br \/>\r\nSoziale Marktwirtschaft.<br \/>\r\n<br \/>\r\nDas w\u00e4re einmal ein guter Anfang, weg von den Extremen, hin zu Kombinationen, die vermutlich wesentlich besser verdaulich w\u00e4ren f\u00fcr unsere Wirtschaft und f\u00fcr den weit gr\u00f6sseren Teil der Besch\u00e4ftigten, damit meine ich Arbeiter und Arbeitgeber.<br \/>\r\n<br \/>\r\nAber ich glaube heute ist nicht der richtige Zeitpunkt um  Projekte mit einem SOZ voraus zu besprechen, man sollte ein weniger belastetes \u00c4quivalent f\u00fcr Soziale Marktwirtschaft finden, dann k\u00f6nnte es klappen.",
				"date": "2016-04-25 20:10:58",
				"hate": 0,
				"love": 0,
				"media": null,
				"highlight": 0,
				"User": {
					"username": "FrancoL",
					"avatar": "\/imgdb\/8759\/Z100,100\/815138918869327",
					"badge": "",
					"created": "2015-11-12 16:40:22",
					"biography": [],
					"gender": null,
					"working_address": null,
					"living_city": null,
					"birthdate": null
				},
				"media_animated": "",
				"media_ratio": 0,
				"youtube": null
			}],
			"User": {
				"username": "HansDampf_CH",
				"avatar": "\/imgdb\/6859\/Z100,100\/8394906900181838",
				"badge": "",
				"created": "2015-06-25 13:25:44",
				"biography": [],
				"gender": null,
				"working_address": null,
				"living_city": null,
				"birthdate": null
			},
			"media_animated": "",
			"media_ratio": 0,
			"youtube": null
		}],
		"CommentsIds": []
	}
}